<?xml version="1.0" encoding="UTF-8" standalone="no"?>
<svg
   xmlns:dc="http://purl.org/dc/elements/1.1/"
   xmlns:cc="http://creativecommons.org/ns#"
   xmlns:rdf="http://www.w3.org/1999/02/22-rdf-syntax-ns#"
   xmlns:svg="http://www.w3.org/2000/svg"
   xmlns="http://www.w3.org/2000/svg"
   xmlns:sodipodi="http://sodipodi.sourceforge.net/DTD/sodipodi-0.dtd"
   xmlns:inkscape="http://www.inkscape.org/namespaces/inkscape"
   version="1.0"
   viewBox="0 0 400.46131 464.716"
   id="svg16"
   sodipodi:docname="gnome.svg"
   width="400.4613"
   height="464.716"
   inkscape:version="1.0.2 (e86c870879, 2021-01-15)">
  <defs
     id="defs20" />
  <sodipodi:namedview
     pagecolor="#ffffff"
     bordercolor="#666666"
     borderopacity="1"
     objecttolerance="10"
     gridtolerance="10"
     guidetolerance="10"
     inkscape:pageopacity="0"
     inkscape:pageshadow="2"
     inkscape:window-width="1043"
     inkscape:window-height="480"
     id="namedview18"
     showgrid="false"
     fit-margin-left="60"
     lock-margins="true"
     fit-margin-top="60"
     fit-margin-right="60"
     fit-margin-bottom="60"
     inkscape:zoom="0.36551404"
     inkscape:cx="183.39667"
     inkscape:cy="78.240927"
     inkscape:window-x="26"
     inkscape:window-y="23"
     inkscape:window-maximized="0"
     inkscape:current-layer="svg16" />
  <metadata
     id="metadata2">
    <rdf:RDF>
      <cc:Work
         rdf:about="">
        <dc:format>image/svg+xml</dc:format>
        <dc:type
           rdf:resource="http://purl.org/dc/dcmitype/StillImage" />
        <dc:title></dc:title>
      </cc:Work>
    </rdf:RDF>
  </metadata>
  <g
     fill="#fff"
     id="g14"
     style="fill:#ffffff;fill-opacity:1"
     transform="translate(59.999745,60)">
    <path
       d="M 250.89,0 C 179.178,0 165.725,102.14 206.068,102.14 246.404,102.14 322.608,0 250.89,0 Z"
       id="path4"
       style="fill:#ffffff;fill-opacity:1" />
    <path
       d="m 131.81,89.484 c 21.48,1.3117 45.047,-81.973 4.6755,-76.735 -40.357,5.2381 -26.164,75.423 -4.6755,76.735 z"
       id="path6"
       style="fill:#ffffff;fill-opacity:1" />
    <path
       d="m 33.369,141.24 c 15.277,-6.7247 1.9676,-72.499 -24.01,-54.561 -25.966,17.941 8.733,61.283 24.01,54.561 z"
       id="path8"
       style="fill:#ffffff;fill-opacity:1" />
    <path
       d="M 76.413,106.81 C 94.599,103.1022 95.596,28.504 63.165,41.886 30.728,55.271 58.2417,110.523 76.413,106.81 Z"
       id="path10"
       style="fill:#ffffff;fill-opacity:1" />
    <path
       d="m 171.38,273.75 c 3.2268,24.643 -18.078,36.812 -38.943,20.926 -66.422,-50.571 109.98,-75.799 98.349,-144.89 -9.6512,-57.348 -185.61,-39.692 -205.65,50.04 -13.563,60.691 55.829,144.89 128.24,144.89 35.62,0 76.706,-32.163 84.392,-72.907 5.8706,-31.07 -69.08,-18.62 -66.387,1.9384 z"
       id="path12"
       style="fill:#ffffff;fill-opacity:1" />
  </g>
</svg>
