<?xml version="1.0" encoding="UTF-8" standalone="no"?>
<svg
   width="1200"
   height="800"
   version="1.1"
   id="svg69"
   sodipodi:docname="gnome-card-twitter.svg"
   inkscape:version="1.1 (c68e22c387, 2021-05-23)"
   inkscape:export-filename="/var/home/jimmac/src/git/gnome/apps-for-gnome/assets/gnome-card-twitter.png"
   inkscape:export-xdpi="96"
   inkscape:export-ydpi="96"
   xmlns:inkscape="http://www.inkscape.org/namespaces/inkscape"
   xmlns:sodipodi="http://sodipodi.sourceforge.net/DTD/sodipodi-0.dtd"
   xmlns="http://www.w3.org/2000/svg"
   xmlns:svg="http://www.w3.org/2000/svg"
   xmlns:rdf="http://www.w3.org/1999/02/22-rdf-syntax-ns#"
   xmlns:cc="http://creativecommons.org/ns#"
   xmlns:dc="http://purl.org/dc/elements/1.1/">
  <metadata
     id="metadata75">
    <rdf:RDF>
      <cc:Work
         rdf:about="">
        <dc:format>image/svg+xml</dc:format>
        <dc:type
           rdf:resource="http://purl.org/dc/dcmitype/StillImage" />
        <dc:title />
      </cc:Work>
    </rdf:RDF>
  </metadata>
  <defs
     id="defs73">
    <clipPath
       clipPathUnits="userSpaceOnUse"
       id="clipPath3016">
      <rect
         style="fill:#ed333b;fill-opacity:1;stroke-width:2;stop-color:#000000"
         id="rect3018"
         width="250"
         height="240"
         x="290"
         y="240" />
    </clipPath>
    <linearGradient
       id="k"
       x1="45.999001"
       x2="64"
       y1="246.97"
       y2="276"
       gradientUnits="userSpaceOnUse">
      <stop
         stop-color="#613583"
         offset="0"
         id="stop42" />
      <stop
         stop-color="#a347ba"
         offset="1"
         id="stop44" />
    </linearGradient>
    <linearGradient
       id="n"
       x1="82"
       x2="64"
       y1="225.61"
       y2="196"
       gradientUnits="userSpaceOnUse">
      <stop
         stop-color="#e5a50a"
         offset="0"
         id="stop47" />
      <stop
         stop-color="#f6d32d"
         offset="1"
         id="stop49" />
    </linearGradient>
    <linearGradient
       id="j"
       x1="45.999001"
       x2="28"
       y1="225.61"
       y2="256.78"
       gradientUnits="userSpaceOnUse">
      <stop
         stop-color="#1a5fb4"
         offset="0"
         id="stop52" />
      <stop
         stop-color="#3584e4"
         offset="1"
         id="stop54" />
    </linearGradient>
    <linearGradient
       id="m"
       x1="82.000999"
       x2="100"
       y1="246.39"
       y2="216"
       gradientUnits="userSpaceOnUse">
      <stop
         stop-color="#c64600"
         offset="0"
         id="stop57" />
      <stop
         stop-color="#ff7800"
         offset="1"
         id="stop59" />
    </linearGradient>
    <linearGradient
       id="i"
       x1="63.999001"
       x2="28"
       y1="215.22"
       y2="215.22"
       gradientUnits="userSpaceOnUse">
      <stop
         stop-color="#26a269"
         offset="0"
         id="stop62" />
      <stop
         stop-color="#33d17a"
         offset="1"
         id="stop64" />
    </linearGradient>
    <linearGradient
       id="l"
       x1="64.499001"
       x2="100"
       y1="257.07001"
       y2="258"
       gradientUnits="userSpaceOnUse">
      <stop
         stop-color="#a51d2d"
         offset="0"
         id="stop67" />
      <stop
         stop-color="#e01b24"
         offset="1"
         id="stop69" />
    </linearGradient>
    <linearGradient
       id="a"
       x1="36"
       x2="60"
       y1="68"
       y2="68"
       gradientTransform="translate(-8,156)"
       gradientUnits="userSpaceOnUse">
      <stop
         stop-color="#ed336c"
         offset="0"
         id="stop100" />
      <stop
         stop-color="#ffa348"
         offset="1"
         id="stop102" />
    </linearGradient>
    <linearGradient
       id="w"
       x1="72"
       x2="96"
       y1="68"
       y2="68"
       gradientTransform="rotate(90,6,130)"
       gradientUnits="userSpaceOnUse">
      <stop
         stop-color="#404ce6"
         offset="0"
         id="stop105" />
      <stop
         stop-color="#c061cb"
         offset="1"
         id="stop107" />
    </linearGradient>
    <linearGradient
       id="v"
       x1="68.848999"
       x2="95.258003"
       y1="84"
       y2="84"
       gradientTransform="translate(-8,156)"
       gradientUnits="userSpaceOnUse">
      <stop
         stop-color="#33d1c6"
         offset="0"
         id="stop110" />
      <stop
         stop-color="#1c25d8"
         offset="1"
         id="stop112" />
    </linearGradient>
    <linearGradient
       id="h"
       x1="614.88"
       x2="346.63"
       y1="95.875"
       y2="325.57999"
       gradientTransform="matrix(-1.5464475,0,0,-1.5464475,1325.2963,779.37713)"
       gradientUnits="userSpaceOnUse">
      <stop
         stop-color="#f66151"
         offset="0"
         id="stop37" />
      <stop
         stop-color="#ff7800"
         offset="1"
         id="stop39" />
    </linearGradient>
  </defs>
  <sodipodi:namedview
     pagecolor="#ffffff"
     bordercolor="#666666"
     borderopacity="1"
     objecttolerance="10"
     gridtolerance="10"
     guidetolerance="10"
     inkscape:pageopacity="0"
     inkscape:pageshadow="2"
     inkscape:window-width="640"
     inkscape:window-height="480"
     id="namedview71"
     showgrid="false"
     inkscape:current-layer="svg69"
     inkscape:document-rotation="0"
     inkscape:pagecheckerboard="1">
    <inkscape:grid
       type="xygrid"
       id="grid111" />
  </sodipodi:namedview>
  <rect
     style="fill:#3d3846;stroke:none;stroke-width:1.39999;stop-color:#000000;fill-opacity:1"
     id="rect77"
     width="1223.0835"
     height="830.08807"
     x="-6.0443931"
     y="-12.899659" />
  <g
     id="g1634"
     transform="translate(-15.44692)">
    <path
       d="M 961.61986,637.19675 C 959.91137,611.57453 937.7558,592.1884 912.13354,593.8962 h -86.60106 c -27.33054,0 -49.48632,-22.15577 -49.48632,-49.48631 1.68212,-25.64864 23.83762,-45.07763 49.48632,-43.3964 h 221.60592 c 27.3305,0 49.4863,-22.15578 49.4863,-49.48633 -1.7077,-25.62304 -23.8632,-45.01051 -49.4863,-43.30362 h -5.1045 c -27.3306,0 -49.4863,-22.15578 -49.4863,-49.48631 -1.73566,-25.59498 -23.89134,-44.93689 -49.48633,-43.20157 h -24.74316 c -27.33054,0 -49.48633,-22.15578 -49.48633,-49.48631 -3.41636,-20.49792 10.43102,-39.88425 30.92894,-43.30054 68.42746,0 68.42746,-92.78685 0,-92.78685 H 670.8865 c -27.33055,0 -49.48633,22.15578 -49.48633,49.48633 -1.7085,25.62221 -23.86406,45.00833 -49.48631,43.30052 H 330.66808 c -27.33051,0 -49.48632,22.15578 -49.48632,49.48633 1.70848,25.62222 23.86402,45.00833 49.48632,43.30052 h 24.74315 c 27.33052,0 49.48631,22.15579 49.48631,49.48633 -1.73565,25.59496 -23.89132,44.93688 -49.48631,43.20155 h -47.93984 c -27.33053,-1e-5 -49.48636,22.15577 -49.48636,49.48632 1.70767,25.62306 23.86321,45.01053 49.48636,43.30363 h 36.19115 c 27.33054,0 49.48632,22.15578 49.48632,49.48631 -1.68212,25.64864 -23.83762,45.07763 -49.48632,43.3964 h -159.907 c -27.3305,0 -49.4864,22.15577 -49.4864,49.48633 1.7085,25.62222 23.8642,45.00833 49.4864,43.30052 h 728.37678 c 27.33053,0 49.48631,-22.15577 49.48631,-49.48631 z"
       fill="url(#h)"
       stop-color="#000000"
       stroke-width="7.5465"
       id="path119"
       style="fill:url(#h)"
       sodipodi:nodetypes="ccsccsccsccscccsccsccsccsccsccsccscc" />
    <g
       id="g4851"
       transform="matrix(1.7407467,0,0,1.7407467,-107.3255,-195.0304)"
       style="display:inline;stroke-width:0.574466">
      <g
         id="g2888"
         clip-path="url(#clipPath3016)"
         style="stroke-width:0.574466">
        <rect
           style="fill:#c0bfbc;fill-opacity:1;stroke-width:1.22826;stop-color:#000000"
           id="rect2783"
           width="250"
           height="240"
           x="290"
           y="240" />
        <rect
           style="fill:#62a0ea;fill-opacity:1;stroke-width:1.14893;stop-color:#000000"
           id="rect4218"
           width="150"
           height="120"
           x="300"
           y="340" />
        <path
           style="display:inline;opacity:0.2;fill:#ffffff;fill-opacity:1;fill-rule:evenodd;stroke:none;stroke-width:1.74621px;stroke-linecap:butt;stroke-linejoin:miter;stroke-opacity:1;enable-background:new"
           d="M 300,406.8737 V 376.47657 L 336.47656,340 h 30.39714 z"
           id="path1132"
           inkscape:connector-curvature="0"
           sodipodi:nodetypes="ccccc" />
        <path
           sodipodi:nodetypes="ccccc"
           inkscape:connector-curvature="0"
           id="path1134"
           d="M 300,431.19141 V 419.03256 L 379.03255,340 h 12.15886 z"
           style="display:inline;opacity:0.2;fill:#ffffff;fill-opacity:1;fill-rule:evenodd;stroke:none;stroke-width:1.74621px;stroke-linecap:butt;stroke-linejoin:miter;stroke-opacity:1;enable-background:new" />
        <rect
           style="fill:#62a0ea;fill-opacity:1;stroke-width:0.847757;stop-color:#000000"
           id="rect4410"
           width="70"
           height="140"
           x="460"
           y="340" />
        <path
           id="rect4040"
           style="fill:#000000;fill-opacity:0.120746;stroke-width:1.14893;stop-color:#000000"
           d="m 240,325 h 330 v 20 H 240 Z m 350,20 a 35,35 0 0 1 -17.5,30.31089 35,35 0 0 1 -35,0 A 35,35 0 0 1 520,345 m 0,0 a 35,35 0 0 1 -17.5,30.31089 35,35 0 0 1 -35,0 A 35,35 0 0 1 450,345 m 0,0 a 35,35 0 0 1 -17.5,30.31089 35,35 0 0 1 -35,0 A 35,35 0 0 1 380,345 m 0.33698,0 a 35,35 0 0 1 -17.50001,30.31089 35,35 0 0 1 -35,0 A 35,35 0 0 1 310.33698,345 M 310,345 a 35,35 0 0 1 -17.5,30.31089 35,35 0 0 1 -35,0 A 35,35 0 0 1 240,345" />
        <circle
           style="fill:#1a5fb4;fill-opacity:1;stroke-width:1.14893;stop-color:#000000"
           id="path4434"
           cx="510"
           cy="420"
           r="10" />
        <rect
           style="fill:#deddda;fill-opacity:1;stroke-width:1.14893;stop-color:#000000"
           id="rect4604"
           width="150"
           height="10"
           x="300"
           y="450" />
        <rect
           style="fill:#9a9996;fill-opacity:1;stroke-width:1.14893;stop-color:#000000"
           id="rect4752"
           width="150"
           height="10"
           x="300"
           y="460" />
      </g>
      <path
         style="fill:#deddda;fill-opacity:1;stroke-width:1.14893;stop-color:#000000"
         id="path511"
         sodipodi:type="arc"
         sodipodi:cx="275"
         sodipodi:cy="325"
         sodipodi:rx="35"
         sodipodi:ry="35"
         sodipodi:start="0"
         sodipodi:end="3.1415927"
         sodipodi:open="true"
         sodipodi:arc-type="arc"
         d="m 310,325 a 35,35 0 0 1 -17.5,30.31089 35,35 0 0 1 -35,0 A 35,35 0 0 1 240,325" />
      <path
         style="fill:#e01b24;fill-opacity:1;stroke-width:1.14893;stop-color:#000000"
         id="path2288"
         sodipodi:type="arc"
         sodipodi:cx="345.33698"
         sodipodi:cy="325"
         sodipodi:rx="35"
         sodipodi:ry="35"
         sodipodi:start="0"
         sodipodi:end="3.1415927"
         sodipodi:open="true"
         sodipodi:arc-type="arc"
         d="m 380.33698,325 a 35,35 0 0 1 -17.50001,30.31089 35,35 0 0 1 -35,0 A 35,35 0 0 1 310.33698,325" />
      <path
         style="fill:#deddda;fill-opacity:1;stroke-width:1.14893;stop-color:#000000"
         id="path2290"
         sodipodi:type="arc"
         sodipodi:cx="415"
         sodipodi:cy="325"
         sodipodi:rx="35"
         sodipodi:ry="35"
         sodipodi:start="0"
         sodipodi:end="3.1415927"
         sodipodi:open="true"
         sodipodi:arc-type="arc"
         d="m 450,325 a 35,35 0 0 1 -17.5,30.31089 35,35 0 0 1 -35,0 A 35,35 0 0 1 380,325" />
      <path
         style="fill:#e01b24;fill-opacity:1;stroke-width:1.14893;stop-color:#000000"
         id="path2292"
         sodipodi:type="arc"
         sodipodi:cx="485"
         sodipodi:cy="325"
         sodipodi:rx="35"
         sodipodi:ry="35"
         sodipodi:start="0"
         sodipodi:end="3.1415927"
         sodipodi:open="true"
         sodipodi:arc-type="arc"
         d="m 520,325 a 35,35 0 0 1 -17.5,30.31089 35,35 0 0 1 -35,0 A 35,35 0 0 1 450,325" />
      <path
         style="fill:#deddda;fill-opacity:1;stroke-width:1.14893;stop-color:#000000"
         id="path2294"
         sodipodi:type="arc"
         sodipodi:cx="555"
         sodipodi:cy="325"
         sodipodi:rx="35"
         sodipodi:ry="35"
         sodipodi:start="0"
         sodipodi:end="3.1415927"
         sodipodi:open="true"
         sodipodi:arc-type="arc"
         d="m 590,325 a 35,35 0 0 1 -17.5,30.31089 35,35 0 0 1 -35,0 A 35,35 0 0 1 520,325" />
      <path
         id="rect2318"
         style="fill:#ed333b;stroke-width:0.513817;stop-color:#000000"
         d="m 340.6,240 h 49.6 L 380,325 h -70 z"
         sodipodi:nodetypes="ccccc" />
      <path
         id="rect2494"
         style="fill:#ed333b;stroke-width:0.513817;stop-color:#000000"
         d="m 439.8,240 h 49.6 l 30.6,85 h -70 z"
         sodipodi:nodetypes="ccccc" />
      <path
         id="rect2496"
         style="fill:#ffffff;stroke-width:0.513817;stop-color:#000000"
         d="m 291,240 h 49.6 L 310,325 h -70 z"
         sodipodi:nodetypes="ccccc" />
      <path
         id="rect2516"
         style="fill:#ffffff;stroke-width:0.513817;stop-color:#000000"
         d="m 390.2,240 h 49.6 l 10.2,85 h -70 z"
         sodipodi:nodetypes="ccccc" />
      <path
         id="rect2518"
         style="fill:#ffffff;stroke-width:0.513817;stop-color:#000000"
         d="M 489.4,240 H 539 l 51,85 h -70 z"
         sodipodi:nodetypes="ccccc" />
    </g>
  </g>
</svg>
